census – Data Journalism with R and the Tidyverse
…
To use the API, you need an API key. To get that, you need to apply for an API key with the Census Bureau. It takes a few minutes and you need to activate your key via email. Once you have your key, you need to set that for this session. Just FYI: Your key is your key. Do not share it around.

census_api_key("YOUR KEY HERE", install=TRUE)

The two main functions in tidycensus are get_decennial, which retrieves data from the 2000 and 2010 Censuses (and soon the 2020 Census), and get_acs, which pulls data from the American Community Survey, a between-Censuses annual survey that provides estimates, not hard counts, but asks more detailed questions. If you’re new to Census data, there’s a very good set of slides from Kyle Walker, the creator of tidycensus, and he’s working on a book that you can read for free online.

It’s important to keep in mind that Census data represents people - you, your neighbors and total strangers. It also requires some level of definitions, especially about race & ethnicity, that may or may not match how you define yourself or how others define themselves.

So to give you some idea of how complicated the data is, let’s pull up just one file from the decennial Census. We’ll use Summary File 1, or SF1. That has the major population and housing stuff.

sf1 <- load_variables(2010, "sf1", cache = TRUE)

sf1

# A tibble: 8,959 × 3
   name    label                                concept         
   <chr>   <chr>                                <chr>           
 1 H001001 Total                                HOUSING UNITS   
 2 H002001 Total                                URBAN AND RURAL 
 3 H002002 Total!!Urban                         URBAN AND RURAL 
 4 H002003 Total!!Urban!!Inside urbanized areas URBAN AND RURAL 
 5 H002004 Total!!Urban!!Inside urban clusters  URBAN AND RURAL 
 6 H002005 Total!!Rural                         URBAN AND RURAL 
 7 H002006 Total!!Not defined for this file     URBAN AND RURAL 
 8 H003001 Total                                OCCUPANCY STATUS
 9 H003002 Total!!Occupied                      OCCUPANCY STATUS
10 H003003 Total!!Vacant                        OCCUPANCY STATUS
# ℹ 8,949 more rows

Note: There are thousands of variables in SF1. That’s not a typo. Open it in your environment by double clicking. As you scroll down, you’ll get an idea of what you’ve got to choose from.

If you think that’s crazy, try the SF3 file from 2000.

sf3 <- load_variables(2000, "sf3", cache = TRUE)

sf3

# A tibble: 16,520 × 3
   name    label                                       concept                  
   <chr>   <chr>                                       <chr>                    
 1 H001001 Total                                       HOUSING UNITS [1]        
 2 H002001 Total                                       UNWEIGHTED SAMPLE HOUSIN…
 3 H002002 Total!!Occupied                             UNWEIGHTED SAMPLE HOUSIN…
 4 H002003 Total!!Vacant                               UNWEIGHTED SAMPLE HOUSIN…
 5 H003001 Total                                       100-PERCENT COUNT OF HOU…
 6 H004001 Percent of occupied housing units in sample PERCENT OF HOUSING UNITS…
 7 H004002 Percent of vacant housing units in sample   PERCENT OF HOUSING UNITS…
 8 H005001 Total                                       URBAN AND RURAL [7]      
 9 H005002 Total!!Urban                                URBAN AND RURAL [7]      
10 H005003 Total!!Urban!!Inside urbanized areas        URBAN AND RURAL [7]      
# ℹ 16,510 more rows
…
Getting data from the 2006-2010 5-year ACS

What I’m going to do next is a lot, but each step is simple. I’m going to join the data together, so each county has one line of data. Then I’m going to rename some fields that repeat. Then I’m going to calculate the minimium and maximum value of the estimate using the margin of error. That’ll help me later. After that, I’m going to calculate a perent change and sort it by that change.

md10 |>
  inner_join(md20, by=c("GEOID", "NAME")) |>
  rename(estimate2010=estimate.x, estimate2020=estimate.y) |>
  mutate(min2010 = estimate2010-moe.x, max2010 = estimate2010+moe.x, min2020 = estimate2020-moe.y, max2020 = estimate2020+moe.y) |>
  select(-variable.x, -variable.y, -moe.x, -moe.y) |>
  mutate(change = ((estimate2020-estimate2010)/estimate2010)*100) |>
  arrange(change)

# A tibble: 24 × 9
   GEOID NAME   estimate2010 estimate2020 min2010 max2010 min2020 max2020 change
   <chr> <chr>         <dbl>        <dbl>   <dbl>   <dbl>   <dbl>   <dbl>  <dbl>
 1 24011 Carol…        58799        59042   56740   60858   54827   63257  0.413
 2 24039 Somer…        42443        44980   39092   45794   40432   49528  5.98 
 3 24041 Talbo…        63017        73102   60081   65953   69071   77133 16.0  
 4 24017 Charl…        88825       103678   87268   90382  102024  105332 16.7  
 5 24019 Dorch…        45151        52799   43470   46832   49020   56578 16.9  
 6 24047 Worce…        55487        65396   52749   58225   61540   69252 17.9  
 7 24045 Wicom…        50752        60366   49313   52191   57929   62803 18.9  
 8 24035 Queen…        81096        96467   78068   84124   91682  101252 19.0  
 9 24023 Garre…        45760        54542   43729   47791   51055   58029 19.2  
10 24031 Montg…        93373       111812   92535   94211  110451  113173 19.7  
# ℹ 14 more rows
…
Sorting Results

You’ll notice that we’ve used arrange to sort the results of tidycensus functions, although that’s done after we create a new variable to hold the data. There’s another way to use arrange that you should know about, one that you can use for exploratory analysis. An example using median household income from 2020:

md20 <- get_acs(geography = "county",
              variables = c(medincome = "B19013_001"),
              state = "MD",
              year = 2020)

Getting data from the 2016-2020 5-year ACS

arrange(md20, desc(estimate))

# A tibble: 24 × 5
   GEOID NAME                          variable  estimate   moe
   <chr> <chr>                         <chr>        <dbl> <dbl>
 1 24027 Howard County, Maryland       medincome   124042  3448
 2 24009 Calvert County, Maryland      medincome   112696  3287
 3 24031 Montgomery County, Maryland   medincome   111812  1361
 4 24017 Charles County, Maryland      medincome   103678  1654
 5 24003 Anne Arundel County, Maryland medincome   103225  1817
 6 24021 Frederick County, Maryland    medincome   100685  1927
 7 24013 Carroll County, Maryland      medincome    99569  3051
 8 24035 Queen Anne's County, Maryland medincome    96467  4785
 9 24037 St. Mary's County, Maryland   medincome    95864  3872
10 24025 Harford County, Maryland      medincome    94003  2398
# ℹ 14 more rows
…
# Join the datasets
state_religion_combined <- state_pop_2020 |>
  inner_join(religion_state_clean, by = c("GEOID" = "State Code"))

# View the combined data
state_religion_combined |>
  select(NAME, value, `State Name`, Adherents, `Adherents as % of Population`, `Diversity Index Value`) |>
  arrange(desc(`Adherents as % of Population`))

# A tibble: 51 × 6
   NAME                    value `State Name`   Adherents Adherents as % of Po…¹
   <chr>                   <dbl> <chr>              <dbl> <chr>                 
 1 Utah                  3271616 Utah             2489571 76.10%                
 2 Alabama               5024279 Alabama          3195509 63.60%                
 3 Louisiana             4657757 Louisiana        2949420 63.32%                
 4 Oklahoma              3959353 Oklahoma         2422123 61.17%                
 5 Mississippi           2961279 Mississippi      1759935 59.43%                
 6 Arkansas              3011524 Arkansas         1739575 57.76%                
 7 District of Columbia   689545 District Of C…    389241 56.45%                
 8 Tennessee             6910840 Tennessee        3844957 55.64%                
 9 South Dakota           886667 South Dakota      491026 55.38%                
10 Texas                29145505 Texas           16045479 55.05%                
# ℹ 41 more rows
# ℹ abbreviated name: ¹​`Adherents as % of Population`
# ℹ 1 more variable: `Diversity Index Value` <dbl>
…
# Filter religion data for Maryland counties only
md_religion <- religion_county |>
  filter(`State Name` == "Maryland") |>
  mutate(FIPS = as.character(FIPS))

# Join the data
md_combined <- md_income |>
  inner_join(md_religion, by = c("GEOID" = "FIPS"))

# Examine the relationship between income and religious adherence
md_combined |>
  select(NAME, estimate, `County Name`, `Adherents as % of Population`, `Diversity Index Value`, Congregations) |>
  arrange(desc(estimate))

# A tibble: 24 × 6
   NAME     estimate `County Name` Adherents as % of Po…¹ Diversity Index Valu…²
   <chr>       <dbl> <chr>         <chr>                                   <dbl>
 1 Howard …   129549 Howard County 43.10%                                  0.628
 2 Calvert…   120295 Calvert Coun… 41.19%                                  0.594
 3 Montgom…   117345 Montgomery C… 53.42%                                  0.693
 4 Anne Ar…   108048 Anne Arundel… 33.86%                                  0.528
 5 Charles…   107808 Charles Coun… 39.86%                                  0.581
 6 Frederi…   106129 Frederick Co… 36.68%                                  0.565
 7 Carroll…   104708 Carroll Coun… 39.79%                                  0.592
 8 St. Mar…   102859 St. Mary's C… 44.32%                                  0.622
 9 Queen A…    99597 Queen Anne's… 40.91%                                  0.594
10 Harford…    98495 Harford Coun… 34.98%                                  0.541
# ℹ 14 more rows
# ℹ abbreviated names: ¹​`Adherents as % of Population`,
#   ²​`Diversity Index Value`
# ℹ 1 more variable: Congregations <dbl>
…
