merging – Data Journalism with R and the Tidyverse
…
Notice how each election cycle (2016, 2018, 2020, 2022, 2024) is now its own column. This format makes it easy to compare someone’s giving patterns across cycles at a glance. For example, we could find contributors who gave in all five election cycles:

clergy_wide |>
  filter(`2016` > 0 & `2018` > 0 & `2020` > 0 & `2022` > 0 & `2024` > 0) |>
  arrange(desc(`2024`))

# A tibble: 32 × 6
   contributor_name     `2024` `2020` `2022` `2018` `2016`
   <chr>                 <dbl>  <dbl>  <dbl>  <dbl>  <dbl>
 1 COWAN, DORIS         46760.   381.  1920. 1791     15.5
 2 TEICHERT, DIANE       9120   1725   4606. 1305   2137  
 3 CLINE-SMYTHE, GLORIA  2839.    30    228.   99.4   68.3
 4 COATES, DELMAN        2300   2350   2900   250    800  
 5 COLE FLANAGAN, CAROL  2029.  2062.  1936    55    125  
 6 JENNINGS, ELLEN       1961.  1642.   296   418.    55  
 7 MASON, NURNEY         1955   1497    825  3310   4100  
 8 PRICE, JOHN           1525  18724  14582. 2140   1185  
 9 MADDOX, ROBERT        1350   4598.   812. 1453   1044. 
10 WHITE, JOANNA         1242.  1161.   352.  182.   183  
# ℹ 22 more rows
…
