17 Mutating data – Data Journalism with R and the Tidyverse
…
church_expenses <- read_csv("data/md_church_expenditures.csv")

Rows: 154 Columns: 32
── Column specification ────────────────────────────────────────────────────────
Delimiter: ","
chr (18): Committee Name, Candidate Last Name, Candidate First Name, Candida...
dbl  (3): TransactionID, Filing EntityID, Transaction Amount
lgl (11): Candidate Suffix, Vendor Name, Vendor Type, Vendor Address Line1, ...

ℹ Use `spec()` to retrieve the full column specification for this data.
ℹ Specify the column types or set `show_col_types = FALSE` to quiet this message.

church_expenses

# A tibble: 154 × 32
   TransactionID `Filing EntityID` `Committee Name`        `Candidate Last Name`
           <dbl>             <dbl> <chr>                   <chr>                
 1       3149378           1003374 Griffith, Melony Citiz… Griffith             
 2       3058673           5007521 Baltimore County Democ… <NA>                 
 3       3147639           1009796 Jackson, Michael A., F… JACKSON              
 4       3058671           5007521 Baltimore County Democ… <NA>                 
 5       3157755           2008639 District 14 Team Slate  <NA>                 
 6       3051656           1000687 Turner, Veronica Frien… TURNER               
 7       3503701           1011532 Charkoudian, Lorig Fri… CHARKOUDIAN          
 8       3058670           5007521 Baltimore County Democ… <NA>                 
 9       2864651           1007182 McCray, Cory Friends of MCCRAY               
10       2862208           1009308 Charles, Nicholas Frie… CHARLES              
# ℹ 144 more rows
# ℹ 28 more variables: `Candidate First Name` <chr>,
#   `Candidate Middle Name` <chr>, `Candidate Suffix` <lgl>,
#   `Committee Type` <chr>, `Payee Name` <chr>, `Payee Type` <chr>,
#   `Payee Address Line1` <chr>, `Payee Address Line2` <chr>,
#   `Payee City` <chr>, `Payee State` <chr>, `Payee Zip Code` <chr>,
#   `Vendor Name` <lgl>, `Vendor Type` <lgl>, `Vendor Address Line1` <lgl>, …
…
