pdfs – Data Journalism with R and the Tidyverse
…
adherents <- read_csv("data/tabula-11s0077.csv") |> clean_names()

Rows: 25 Columns: 10
── Column specification ────────────────────────────────────────────────────────
Delimiter: ","
chr (4): U .S .  .  .  .  .  ., MO . . . . . . ., 59, 1.0
dbl (3): 47 .4, 2 .1, 50.3
num (3): 133,377, 6,544, 2,813

ℹ Use `spec()` to retrieve the full column specification for this data.
ℹ Specify the column types or set `show_col_types = FALSE` to quiet this message.

adherents

# A tibble: 25 × 10
   u_s               x133_377 x47_4 x6_544  x2_1 mo     x2_813 x50_3 x59   x1_0 
   <chr>                <dbl> <dbl>  <dbl> <dbl> <chr>   <dbl> <dbl> <chr> <chr>
 1 AL  . . . . . . .     2418  54.4      9   0.2 MT . …    401  44.4 1     0.1  
 2 AK . . . . . . .       210  33.6      6   0.9 NE . …    995  58.2 7     0.4  
 3 AZ . . . . . . .      1946  37.9    106   1.6 NV . …    604  30.2 74    2.8  
 4 AR . . . . . . .      1516  56.7      2   0.1 NH . …    571  46.2 10    0.8  
 5 CA . . . . . . .     14328  42.3   1220   3.3 NJ  .…   4262  50.7 505   5.8  
 6 CO . . . . . . .      1604  37.3     90   1.8 NM . …   1041  57.2 11    0.6  
 7 CT . . . . . . .      1828  53.7    119   3.4 NY . …   9569  50.4 1,625 8.3  
 8 DE . . . . . . .       299  38.2     15   1.7 NC . …   3598  44.7 30    0.3  
 9 DC . . . . . . .       331  57.8     28   4.7 ND . …    468  72.9 (Z)   (Z)  
10 FL 3  . . . . . .     5904  36.9    614   3.3 OH . …   4912  43.3 148   1.3  
# ℹ 15 more rows
…
census_adherents <- read_csv("data/tabula-11s0077.csv", col_names = FALSE) |> clean_names()

Rows: 26 Columns: 10
── Column specification ────────────────────────────────────────────────────────
Delimiter: ","
chr (6): X1, X3, X5, X6, X9, X10
dbl (1): X8
num (3): X2, X4, X7

ℹ Use `spec()` to retrieve the full column specification for this data.
ℹ Specify the column types or set `show_col_types = FALSE` to quiet this message.

census_adherents

# A tibble: 26 × 10
   x1                        x2 x3       x4 x5    x6        x7    x8 x9    x10  
   <chr>                  <dbl> <chr> <dbl> <chr> <chr>  <dbl> <dbl> <chr> <chr>
 1 U .S .  .  .  .  .  . 133377 47 .4  6544 2 .1  MO . …  2813  50.3 59    1.0  
 2 AL  . . . . . . .       2418 54.4      9 0.2   MT . …   401  44.4 1     0.1  
 3 AK . . . . . . .         210 33.6      6 0.9   NE . …   995  58.2 7     0.4  
 4 AZ . . . . . . .        1946 37.9    106 1.6   NV . …   604  30.2 74    2.8  
 5 AR . . . . . . .        1516 56.7      2 0.1   NH . …   571  46.2 10    0.8  
 6 CA . . . . . . .       14328 42.3   1220 3.3   NJ  .…  4262  50.7 505   5.8  
 7 CO . . . . . . .        1604 37.3     90 1.8   NM . …  1041  57.2 11    0.6  
 8 CT . . . . . . .        1828 53.7    119 3.4   NY . …  9569  50.4 1,625 8.3  
 9 DE . . . . . . .         299 38.2     15 1.7   NC . …  3598  44.7 30    0.3  
10 DC . . . . . . .         331 57.8     28 4.7   ND . …   468  72.9 (Z)   (Z)  
# ℹ 16 more rows
…
Rows: 26 Columns: 10
── Column specification ────────────────────────────────────────────────────────
Delimiter: ","
chr (6): X1, X3, X5, X6, X9, X10
dbl (1): X8
num (3): X2, X4, X7

ℹ Use `spec()` to retrieve the full column specification for this data.
ℹ Specify the column types or set `show_col_types = FALSE` to quiet this message.

census_adherents

# A tibble: 26 × 10
   state    christian_2000 christian_2000_pct jewish_2009 jewish_2009_pct state2
   <chr>             <dbl> <chr>                    <dbl> <chr>           <chr> 
 1 U .S . …         133377 47 .4                     6544 2 .1            MO . …
 2 AL  . .…           2418 54.4                         9 0.2             MT . …
 3 AK . . …            210 33.6                         6 0.9             NE . …
 4 AZ . . …           1946 37.9                       106 1.6             NV . …
 5 AR . . …           1516 56.7                         2 0.1             NH . …
 6 CA . . …          14328 42.3                      1220 3.3             NJ  .…
 7 CO . . …           1604 37.3                        90 1.8             NM . …
 8 CT . . …           1828 53.7                       119 3.4             NY . …
 9 DE . . …            299 38.2                        15 1.7             NC . …
10 DC . . …            331 57.8                        28 4.7             ND . …
# ℹ 16 more rows
# ℹ 4 more variables: christian_2000_2 <dbl>, christian_2000_pct_2 <dbl>,
#   jewish_2009_2 <chr>, jewish_2009_pct_2 <chr>
…
Warning: There were 2 warnings in `mutate()`.
The first warning was:
ℹ In argument: `jewish_2009 = as.numeric(jewish_2009)`.
Caused by warning:
! NAs introduced by coercion
ℹ Run `dplyr::last_dplyr_warnings()` to see the 1 remaining warning.

census_adherents_combined <- bind_rows(left_half, right_half) |>
  filter(!is.na(state))  # Remove any empty rows

# View the result
census_adherents_combined

# A tibble: 52 × 5
   state           christian_2000 christian_2000_pct jewish_2009 jewish_2009_pct
   <chr>                    <dbl>              <dbl>       <dbl>           <dbl>
 1 U .S .  .  .  …         133377               NA          6544            NA  
 2 AL  . . . . . …           2418               54.4           9             0.2
 3 AK . . . . . .…            210               33.6           6             0.9
 4 AZ . . . . . .…           1946               37.9         106             1.6
 5 AR . . . . . .…           1516               56.7           2             0.1
 6 CA . . . . . .…          14328               42.3        1220             3.3
 7 CO . . . . . .…           1604               37.3          90             1.8
 8 CT . . . . . .…           1828               53.7         119             3.4
 9 DE . . . . . .…            299               38.2          15             1.7
10 DC . . . . . .…            331               57.8          28             4.7
# ℹ 42 more rows
…
Warning: There were 2 warnings in `mutate()`.
The first warning was:
ℹ In argument: `jewish_2009 = as.numeric(jewish_2009)`.
Caused by warning:
! NAs introduced by coercion
ℹ Run `dplyr::last_dplyr_warnings()` to see the 1 remaining warning.

census_adherents_combined <- bind_rows(left_half, right_half) |>
  filter(!is.na(state))  # Remove any empty rows

# View the result
census_adherents_combined

# A tibble: 52 × 5
   state           christian_2000 christian_2000_pct jewish_2009 jewish_2009_pct
   <chr>                    <dbl>              <dbl>       <dbl>           <dbl>
 1 U .S .  .  .  …         133377               47.4        6544             2.1
 2 AL  . . . . . …           2418               54.4           9             0.2
 3 AK . . . . . .…            210               33.6           6             0.9
 4 AZ . . . . . .…           1946               37.9         106             1.6
 5 AR . . . . . .…           1516               56.7           2             0.1
 6 CA . . . . . .…          14328               42.3        1220             3.3
 7 CO . . . . . .…           1604               37.3          90             1.8
 8 CT . . . . . .…           1828               53.7         119             3.4
 9 DE . . . . . .…            299               38.2          15             1.7
10 DC . . . . . .…            331               57.8          28             4.7
# ℹ 42 more rows

We could stop here, but there are a bunch of periods in the state column and it’s better to remove them - it will make filtering easier. Let’s use str_remove_all() to do that, too. First we’ll replace all periods and then all spaces:

census_adherents_combined <- census_adherents_combined |>
  mutate(state = str_remove_all(state, "\\.") |> str_remove_all(" "))

census_adherents_combined

# A tibble: 52 × 5
   state christian_2000 christian_2000_pct jewish_2009 jewish_2009_pct
   <chr>          <dbl>              <dbl>       <dbl>           <dbl>
 1 US            133377               47.4        6544             2.1
 2 AL              2418               54.4           9             0.2
 3 AK               210               33.6           6             0.9
 4 AZ              1946               37.9         106             1.6
 5 AR              1516               56.7           2             0.1
 6 CA             14328               42.3        1220             3.3
 7 CO              1604               37.3          90             1.8
 8 CT              1828               53.7         119             3.4
 9 DE               299               38.2          15             1.7
10 DC               331               57.8          28             4.7
# ℹ 42 more rows
…
