4 Aggregates – Sports Data Analysis and Visualization
…
So the most common position in the NBA? Shooting guard, followed by small forward.

We can, if we want, group by more than one thing. Which team has the most of a single position? To do that, we can group by the team – called Tm in the data – and position, or Pos in the data:

nbaplayers |>
  group_by(Team, Pos) |>
  summarise(
    total = n()
  ) |> arrange(desc(total))

`summarise()` has grouped output by 'Team'. You can override using the
`.groups` argument.

# A tibble: 158 × 3
# Groups:   Team [32]
   Team  Pos   total
   <chr> <chr> <int>
 1 2TM   SG       20
 2 2TM   PG       15
 3 2TM   C        14
 4 2TM   PF       14
 5 2TM   SF       14
 6 CHO   SG       11
 7 OKC   SG        8
 8 ATL   SG        7
 9 CLE   SG        7
10 GSW   SG        7
# ℹ 148 more rows
…
Let’s look at centers. The average center plays 855 minutes and the median is 606 minutes.

Why?

Let’s let sort help us.

nbaplayers |> arrange(desc(MP))

# A tibble: 735 × 30
      Rk Player       Age Team  Pos       G    GS    MP   PER `TS%` `3PAr`   FTr
   <dbl> <chr>      <dbl> <chr> <chr> <dbl> <dbl> <dbl> <dbl> <dbl>  <dbl> <dbl>
 1     1 Mikal Bri…    28 NYK   SF       82    82  3036  14   0.585  0.391 0.1  
 2     2 Josh Hart     29 NYK   SG       77    77  2897  16.5 0.611  0.327 0.266
 3     3 Anthony E…    23 MIN   SG       79    79  2871  20.1 0.595  0.503 0.308
 4     4 Devin Boo…    28 PHO   SG       75    75  2795  19.3 0.589  0.388 0.34 
 5     5 James Har…    35 LAC   PG       79    79  2789  20   0.582  0.516 0.446
 6     6 DeMar DeR…    35 SAC   SF       77    77  2768  17.7 0.569  0.196 0.337
 7     7 Trae Young    26 ATL   PG       76    76  2739  18.3 0.567  0.467 0.408
 8     8 Tyler Her…    25 MIA   SG       77    77  2725  19.7 0.605  0.486 0.237
 9     9 OG Anunoby    27 NYK   PF       74    74  2706  15.4 0.591  0.448 0.22 
10    10 Jalen Gre…    22 HOU   SG       82    82  2697  15.1 0.544  0.46  0.234
# ℹ 725 more rows
# ℹ 18 more variables: `ORB%` <dbl>, `DRB%` <dbl>, `TRB%` <dbl>, `AST%` <dbl>,
#   `STL%` <dbl>, `BLK%` <dbl>, `TOV%` <dbl>, `USG%` <dbl>, OWS <dbl>,
#   DWS <dbl>, WS <dbl>, `WS/48` <dbl>, OBPM <dbl>, DBPM <dbl>, BPM <dbl>,
#   VORP <dbl>, Awards <lgl>, `Player-additional` <chr>
…
