Sports Data Analysis and Visualization - 6 Filters and selections
…
But what if we want to see all of the Power Five conferences? We could use conditional logic in our filter. The conditional logic operators are | for OR and & for AND. NOTE: AND means all conditions have to be met. OR means any of the conditions work. So be careful about boolean logic.

attendance |> filter(Conference == "Big 10" | Conference == "SEC" | Conference == "Pac-12" | Conference == "ACC" | Conference == "Big 12")

# A tibble: 51 × 12
   Institution    Conference `2013` `2014` `2015` `2016` `2017` `2018` `2019`
   <chr>          <chr>       <dbl>  <dbl>  <dbl>  <dbl>  <dbl>  <dbl>  <dbl>
 1 Alabama        SEC        710538 710736 707786 712747 712053 710931 707817
 2 Arizona        Pac-12     285713 354973 308355 338017 255791 318051 237194
 3 Arizona St.    Pac-12     501509 343073 368985 286417 359660 291091 344161
 4 Arkansas       SEC        431174 399124 471279 487067 442569 367748 356517
 5 Auburn         SEC        685252 612157 612157 695498 605120 591236 600355
 6 Baylor         Big 12     321639 280257 276960 275029 262978 248017 318621
 7 Boston College ACC        198035 239893 211433 192942 215546 263363 205111
 8 California     Pac-12     345303 286051 292797 279769 219290 300061 254597
 9 Clemson        ACC        574333 572262 588266 566787 565412 562799 566074
10 Colorado       Pac-12     230778 226670 236331 279652 282335 274852 297435
# ℹ 41 more rows
# ℹ 3 more variables: `2020` <dbl>, `2021` <dbl>, `2022` <dbl>

But that’s a lot of repetitive code. And a lot of typing. And typing is the devil. So what if we could create a list and pass it into the filter? It’s pretty simple.

We can create a new variable – remember variables can represent just about anything – and create a list. To do that we use the c operator, which stands for concatenate. That just means take all the stuff in the parenthesis after the c and bunch it into a list.

Note here: text is in quotes. If they were numbers, we wouldn’t need the quotes.

powerfive <- c("SEC", "Big Ten", "Pac-12", "Big 12", "ACC")

Now with a list, we can use the %in% operator. It does what you think it does – it gives you data that matches things IN the list you give it.

attendance |> filter(Conference %in% powerfive)

# A tibble: 65 × 12
   Institution    Conference `2013` `2014` `2015` `2016` `2017` `2018` `2019`
   <chr>          <chr>       <dbl>  <dbl>  <dbl>  <dbl>  <dbl>  <dbl>  <dbl>
 1 Alabama        SEC        710538 710736 707786 712747 712053 710931 707817
 2 Arizona        Pac-12     285713 354973 308355 338017 255791 318051 237194
 3 Arizona St.    Pac-12     501509 343073 368985 286417 359660 291091 344161
 4 Arkansas       SEC        431174 399124 471279 487067 442569 367748 356517
 5 Auburn         SEC        685252 612157 612157 695498 605120 591236 600355
 6 Baylor         Big 12     321639 280257 276960 275029 262978 248017 318621
 7 Boston College ACC        198035 239893 211433 192942 215546 263363 205111
 8 California     Pac-12     345303 286051 292797 279769 219290 300061 254597
 9 Clemson        ACC        574333 572262 588266 566787 565412 562799 566074
10 Colorado       Pac-12     230778 226670 236331 279652 282335 274852 297435
# ℹ 55 more rows
# ℹ 3 more variables: `2020` <dbl>, `2021` <dbl>, `2022` <dbl>

6.1 Selecting data to make it easier to read

So now we have our Power Five list. What if we just wanted to see attendance from the most recent season and ignore all the rest? Select to the rescue.

attendance |> filter(Conference %in% powerfive) |> select(Institution, Conference, `2022`)

# A tibble: 65 × 3
   Institution    Conference `2022`
   <chr>          <chr>       <dbl>
 1 Alabama        SEC        692870
 2 Arizona        Pac-12     309465
 3 Arizona St.    Pac-12     258488
 4 Arkansas       SEC        512087
 5 Auburn         SEC        681621
 6 Baylor         Big 12     272779
 7 Boston College ACC        214233
 8 California     Pac-12     270172
 9 Clemson        ACC        564860
10 Colorado       Pac-12     257084
# ℹ 55 more rows
…
Rows: 5681 Columns: 59
── Column specification ────────────────────────────────────────────────────────
Delimiter: ","
chr (10): Team, Player, Class, Pos, Height, Hometown, High School, Summary, ...
dbl (49): #, Weight, Rk.x, G, GS, MP, FG, FGA, FG%, 2P, 2PA, 2P%, 3P, 3PA, 3...

ℹ Use `spec()` to retrieve the full column specification for this data.
ℹ Specify the column types or set `show_col_types = FALSE` to quiet this message.

players |>
  mutate(trueshooting = (PTS/(2*(FGA + (.44*FTA))))*100) |>
  arrange(desc(trueshooting))

# A tibble: 5,681 × 60
   Team    Player   `#` Class Pos   Height Weight Hometown `High School` Summary
   <chr>   <chr>  <dbl> <chr> <chr> <chr>   <dbl> <chr>    <chr>         <chr>  
 1 Oklaho… Westo…    35 JR    G     6-3       180 Fairvie… Fairview HS   0.4 Pt…
 2 Northe… Dawso…     4 FR    G     6-3       190 Scottsb… IMG Academy   1.0 Pt…
 3 North … Grays…    20 FR    G     6-3       175 Carroll… Hebron (TX)   0.3 Pt…
 4 UNC Ta… Jacks…    30 SR    G     6-1       180 Richmon… Collegiate S… 0.8 Pt…
 5 Missis… Justi…    15 SR    G     6-5       215 Birming… Hoover (AL)   0.8 Pt…
 6 Georgi… Braxt…    34 SO    G     6-2       185 Atlanta… Riverwood In… 0.6 Pt…
 7 Florid… Alex …    21 JR    G     6-4       185 Colts N… Ranney School 0.5 Pt…
 8 Fairle… Brand…    99 SO    G     5-11      165 Tarryto… The Gunnery … 1.5 Pt…
 9 Easter… Luke …    22 FR    F     6-8       205 Surpris… Paradise Hon… 1.0 Pt…
10 Bradle… Sam H…    13 SO    G     6-2       180 Napervi… Benet Academy 0.5 Pt…
# ℹ 5,671 more rows
# ℹ 50 more variables: Rk.x <dbl>, G <dbl>, GS <dbl>, MP <dbl>, FG <dbl>,
#   FGA <dbl>, `FG%` <dbl>, `2P` <dbl>, `2PA` <dbl>, `2P%` <dbl>, `3P` <dbl>,
#   `3PA` <dbl>, `3P%` <dbl>, FT <dbl>, FTA <dbl>, `FT%` <dbl>, ORB <dbl>,
#   DRB <dbl>, TRB <dbl>, AST <dbl>, STL <dbl>, BLK <dbl>, TOV <dbl>, PF <dbl>,
#   PTS <dbl>, Rk.y <dbl>, PER <dbl>, `TS%` <dbl>, `eFG%` <dbl>, `3PAr` <dbl>,
#   FTr <dbl>, PProd <dbl>, `ORB%` <dbl>, `DRB%` <dbl>, `TRB%` <dbl>, …

In that season, we’ve got several players that can lay claim to the title of One Shot One Three True Shooting champion.

In most contests, like the batting title in Major League Baseball, there’s a minimum number of X to qualify. In baseball, it’s at bats. In basketball, it attempts. So let’s set a floor and see how it changes. What if we said you had to have played 100 minutes in a season? The top players in college basketball play more than 1000 minutes in a season. So 100 is not that much. Let’s try it and see.

players |>
  mutate(trueshooting = (PTS/(2*(FGA + (.44*FTA))))*100) |>
  arrange(desc(trueshooting)) |>
  filter(MP > 100)

# A tibble: 3,829 × 60
   Team    Player   `#` Class Pos   Height Weight Hometown `High School` Summary
   <chr>   <chr>  <dbl> <chr> <chr> <chr>   <dbl> <chr>    <chr>         <chr>  
 1 Milwau… Moses…    33 SR    C     7-1       225 Wau, So… Bahr El-Ghaz… 2.8 Pt…
 2 Stony … Leon …    33 FR    F     6-10      198 Alkmaar… Asheville Sc… 2.3 Pt…
 3 Wake F… Matth…    33 SO    F     7-1       250 <NA>     FC Barcelona… 6.1 Pt…
 4 San Fr… Volod…    33 JR    C     7-1       270 Truskav… Kaunas A. Pu… 3.5 Pt…
 5 Winthr… Camer…    10 JR    G     6-5       195 Thomasv… Thomasville … 1.3 Pt…
 6 Omaha … Kyle …     3 SR    G     6-5       190 Omaha, … Creighton Pr… 3.3 Pt…
 7 New Me… Sebas…     3 SO    C     6-11      240 <NA>     Marks Gymnas… 1.5 Pt…
 8 Loyola… Jacob…    22 JR    C     6-10      240 Edina, … Edina HS      1.8 Pt…
 9 Southe… Felix…     1 SR    G     6-2       175 Stockho… Fryshuset BC… 3.1 Pt…
10 Alabam… Nick …    23 JR    F     6-9        NA <NA>     <NA>          3.5 Pt…
# ℹ 3,819 more rows
# ℹ 50 more variables: Rk.x <dbl>, G <dbl>, GS <dbl>, MP <dbl>, FG <dbl>,
#   FGA <dbl>, `FG%` <dbl>, `2P` <dbl>, `2PA` <dbl>, `2P%` <dbl>, `3P` <dbl>,
#   `3PA` <dbl>, `3P%` <dbl>, FT <dbl>, FTA <dbl>, `FT%` <dbl>, ORB <dbl>,
#   DRB <dbl>, TRB <dbl>, AST <dbl>, STL <dbl>, BLK <dbl>, TOV <dbl>, PF <dbl>,
#   PTS <dbl>, Rk.y <dbl>, PER <dbl>, `TS%` <dbl>, `eFG%` <dbl>, `3PAr` <dbl>,
#   FTr <dbl>, PProd <dbl>, `ORB%` <dbl>, `DRB%` <dbl>, `TRB%` <dbl>, …
…
