Sports Data Analysis and Visualization - 11 Residuals
…
Uh, oh. What’s going on here? When you get a message like this, where R is complaining about the size of the data, it most likely means that your model is using some columns that have NA values. In this case, the number of columns looks small - perhaps 3 - so let’s just get rid of those rows by using the calculated columns from our model:

residualmodel <- residualmodel %>% filter(!is.na(FGPctMargin))

Now we can try re-running the code to add the predicted and residuals columns:

residualmodel <- residualmodel %>% mutate(predicted = predict(fit), residuals = residuals(fit))

Now we can sort our data by those residuals. Sorting in descending order gives us the games where teams overperformed the model. To make it easier to read, I’m going to use select to give us just the columns we need to see and limit our results to Big Ten teams.

residualmodel %>% filter(Conference == 'Big Ten') %>% arrange(desc(residuals)) %>% select(Date, Team, Opponent, W_L, differential, FGPctMargin, predicted, residuals)

# A tibble: 2,037 × 8
   Date       Team         Opponent       W_L   diffe…¹ FGPctM…² predi…³ resid…⁴
   <date>     <chr>        <chr>          <chr>   <dbl>    <dbl>   <dbl>   <dbl>
 1 2020-12-15 Northwestern Quincy         W          52  0.089     10.8     41.2
 2 2020-11-25 Nebraska     McNeese State  W          47  0.118     14.3     32.7
 3 2020-11-25 Illinois     North Carolin… W          62  0.243     29.3     32.7
 4 2017-11-22 Illinois     Augustana (IL) W          34  0.0140     1.78    32.2
 5 2017-12-13 Illinois     Longwood       W          47  0.126     15.2     31.8
 6 2017-11-10 Illinois     Southern       W          47  0.135     16.3     30.7
 7 2017-12-11 Northwestern Chicago State  W          65  0.291     35.0     30.0
 8 2018-11-08 Northwestern New Orleans    W          30  0.00900    1.18    28.8
 9 2020-01-21 Maryland     Northwestern   W          11 -0.148    -17.7     28.7
10 2019-11-16 Purdue       Chicago State  W          44  0.133     16.1     27.9
# … with 2,027 more rows, and abbreviated variable names ¹​differential,
#   ²​FGPctMargin, ³​predicted, ⁴​residuals
…
Our min and max go from -94 to positive 102

Our adjusted R-squared is … 0.0001726 Not much at all.

Our p-value is … 0.0004783, which is less than than .05, so that’s something.

So what we can say about this model is that it’s statistically significant, but doesn’t really explain much. It’s not meaningless, but on its own the total number of fouls doesn’t go very far in explaining the point differential. Normally, we’d stop right here – why bother going forward with a predictive model that isn’t terribly predictive? But let’s do it anyway. Oh, and see that “(3 observations deleted due to missingness)” bit? That means we need to lose some incomplete data again.

fouls <- fouls %>% filter(!is.na(TotalFouls))
fouls$predicted <- predict(pfit)
fouls$residuals <- residuals(pfit)

fouls %>% arrange(desc(residuals)) %>% select(Team, Opponent, W_L, TeamScore, OpponentScore, TotalFouls, residuals)

# A tibble: 64,863 × 7
   Team                      Opponent      W_L   TeamS…¹ Oppon…² Total…³ resid…⁴
   <chr>                     <chr>         <chr>   <dbl>   <dbl>   <dbl>   <dbl>
 1 McNeese State             Dallas Chris… W         140      37      33   103. 
 2 Appalachian State         Toccoa Falls  W         135      34      35   101. 
 3 Grambling                 Ecclesia      W         147      52      20    94.4
 4 Utah                      Mississippi … W         143      49      30    93.7
 5 Merrimack                 Lesley        W         110      16      21    93.5
 6 Lamar                     Howard Payne  W         121      32      35    88.9
 7 Georgia Southern          Carver Colle… W         139      51      38    88.0
 8 Youngstown State          Franciscan    W         134      46      35    87.9
 9 Maryland-Baltimore County Valley Forge  W         134      46      34    87.9
10 Tennessee-Martin          Champion Chr… W         115      29      28    85.7
# … with 64,853 more rows, and abbreviated variable names ¹​TeamScore,
#   ²​OpponentScore, ³​TotalFouls, ⁴​residuals
…
