Derek Willis - What Was That?
…
third_and_six_rush_success/third_and_six_runs |> nrow()

[1] 0.3934817

But has that strategy worked for Maryland? Under Locksley, the Terps have passed the ball on two of every three plays when facing third-and-six, which means they run more often than the average team. And while pass plays in that situation have tended to gain more yardage, when they do run they average nearly six yards. In 16 rushing attempts from that third-down situation, the Terps have gained at least six yards half the time, including a 12-yard gain from Roman Hemby earlier in the Illinois game. That’s not a huge number of plays, but it puts Maryland among the top 30 teams that have succeeded the most by running on third-and-six since 2018. I’ve limited my results to teams that have run the ball on third-and-six at least 10 times over this period.

Code

runs_by_team_success <- third_and_six_runs |> filter(yards_gained >= 6) |>  group_by(pos_team)  |> summarise(success = n()) |> arrange(desc(success))

runs_by_team |> inner_join(runs_by_team_success) |> mutate(percent = success/total*100) |> arrange(desc(percent)) |> filter(total >= 10)

Joining with `by = join_by(pos_team)`

# A tibble: 114 × 4
   pos_team          total success percent
   <chr>             <int>   <int>   <dbl>
 1 Kentucky             12      10    83.3
 2 Coastal Carolina     18      13    72.2
 3 Old Dominion         14      10    71.4
 4 Utah                 15      10    66.7
 5 Oregon State         12       8    66.7
 6 South Florida        20      12    60  
 7 Fresno State         10       6    60  
 8 North Carolina       17      10    58.8
 9 Appalachian State    14       8    57.1
10 UCLA                 14       8    57.1
# … with 104 more rows
…
def_rush_success_2023 <- third_and_six |> 
  filter(str_detect(play_type, "Rush"), season == 2023) |> 
  filter(yards_gained >= 6) |>
  group_by(def_pos_team) |>
  summarise(success = n()) |> 
  arrange(desc(success))

def_rush_2023 |> 
  inner_join(def_rush_success_2023) |> 
  mutate(percent = success/total*100) |> 
  arrange(desc(percent)) 

Joining with `by = join_by(def_pos_team)`

# A tibble: 125 × 4
   def_pos_team      total success percent
   <chr>             <int>   <int>   <dbl>
 1 Baylor                4       4     100
 2 Akron                 3       3     100
 3 Cal Poly              3       3     100
 4 Bucknell              2       2     100
 5 Duquesne              2       2     100
 6 Georgia Tech          2       2     100
 7 Northern Colorado     2       2     100
 8 Texas Southern        2       2     100
 9 Vanderbilt            2       2     100
10 Weber State           2       2     100
# … with 115 more rows
…
