Sports Data Analysis and Visualization - 5 Mutating data
…
The code to calculate percent change is pretty simple. Remember, with summarize, we used n() to count things. With mutate, we use very similar syntax to calculate a new value using other values in our dataset. So in this case, we’re trying to do (new-old)/old, but we’re doing it with fields. If we look at what we got when we did head, you’ll see there’s `2018` as the new data, and we’ll use `2017` as the old data. So we’re looking at one year. Then, to help us, we’ll use arrange again to sort it, so we get the fastest growing school over one year.

attendance %>% mutate(
  change = (`2019` - `2018`)/`2018`
) 

# A tibble: 149 × 10
   Institution     Conference   `2013` `2014` `2015` `2016` `2017` `2018` `2019`
   <chr>           <chr>         <dbl>  <dbl>  <dbl>  <dbl>  <dbl>  <dbl>  <dbl>
 1 Air Force       MWC          228562 168967 156158 177519 174924 166205 162505
 2 Akron           MAC          107101  55019 108588  62021 117416  92575 107752
 3 Alabama         SEC          710538 710736 707786 712747 712053 710931 707817
 4 Appalachian St. FBS Indepen… 149366     NA     NA     NA     NA     NA     NA
 5 Appalachian St. Sun Belt         NA 138995 128755 156916 154722 131716 166640
 6 Arizona         Pac-12       285713 354973 308355 338017 255791 318051 237194
 7 Arizona St.     Pac-12       501509 343073 368985 286417 359660 291091 344161
 8 Arkansas        SEC          431174 399124 471279 487067 442569 367748 356517
 9 Arkansas St.    Sun Belt     149477 149163 138043 136200 119538 119001 124017
10 Army West Point FBS Indepen… 169781 171310 185946 163267 185543 190156 185935
# … with 139 more rows, and 1 more variable: change <dbl>

What do we see right away? Do those numbers look like we expect them to? No. They’re a decimal expressed as a percentage. So let’s fix that by multiplying by 100.

attendance %>% mutate(
  change = ((`2019` - `2018`)/`2018`)*100
) 

# A tibble: 149 × 10
   Institution     Conference   `2013` `2014` `2015` `2016` `2017` `2018` `2019`
   <chr>           <chr>         <dbl>  <dbl>  <dbl>  <dbl>  <dbl>  <dbl>  <dbl>
 1 Air Force       MWC          228562 168967 156158 177519 174924 166205 162505
 2 Akron           MAC          107101  55019 108588  62021 117416  92575 107752
 3 Alabama         SEC          710538 710736 707786 712747 712053 710931 707817
 4 Appalachian St. FBS Indepen… 149366     NA     NA     NA     NA     NA     NA
 5 Appalachian St. Sun Belt         NA 138995 128755 156916 154722 131716 166640
 6 Arizona         Pac-12       285713 354973 308355 338017 255791 318051 237194
 7 Arizona St.     Pac-12       501509 343073 368985 286417 359660 291091 344161
 8 Arkansas        SEC          431174 399124 471279 487067 442569 367748 356517
 9 Arkansas St.    Sun Belt     149477 149163 138043 136200 119538 119001 124017
10 Army West Point FBS Indepen… 169781 171310 185946 163267 185543 190156 185935
# … with 139 more rows, and 1 more variable: change <dbl>

Now, does this ordering do anything for us? No. Let’s fix that with arrange.

attendance %>% mutate(
  change = ((`2019` - `2018`)/`2018`)*100
) %>% arrange(desc(change))

# A tibble: 149 × 10
   Institution    Conference    `2013` `2014` `2015` `2016` `2017` `2018` `2019`
   <chr>          <chr>          <dbl>  <dbl>  <dbl>  <dbl>  <dbl>  <dbl>  <dbl>
 1 Kansas         Big 12        265187 204462 190972 154969 186490 116544 237122
 2 Coastal Caro.  Sun Belt          NA     NA     NA     NA  89754  53173  90112
 3 La.-Monroe     Sun Belt       85177  90540  58659  67057  49640  71048 100367
 4 Virginia       ACC           370234 275243 302994 239576 275788 238232 335040
 5 Louisiana Tech C-USA          93332 100272 125863 102059 142626  87623 122631
 6 North Carolina ACC           360500 328000 347500 301500 350500 218111 303000
 7 Fla. Atlantic  C-USA          72758  70608 105703  60437 151580 102308 140857
 8 Texas St.      Sun Belt      108371 123589 108998 108717 104680  78689 102840
 9 New Mexico St. FBS Independ… 112347     NA     NA     NA     NA  68529  89523
10 San Jose St.   MWC            98174  75340  91869  92515  85235  71276  92374
# … with 139 more rows, and 1 more variable: change <dbl>
…
So what does True Shooting Percentage look like in code?

Let’s think about this differently. Who had the best true shooting season last year?

players %>%
  mutate(trueshooting = (PTS/(2*(FGA + (.44*FTA))))*100) %>%
  arrange(desc(trueshooting))

# A tibble: 5,688 × 60
   Team    Player   `#` Class Pos   Height Weight Hometown `High School` Summary
   <chr>   <chr>  <dbl> <chr> <chr> <chr>   <dbl> <chr>    <chr>         <chr>  
 1 Washin… Noah …    32 JR    G     6-3       185 Seattle… Garfield HS   0.6 Pt…
 2 Troy T… DJ Ro…    34 FR    G     6-1       160 Monroev… Oakman HS     1.0 Pt…
 3 Syracu… Arthu…    33 SO    G     6-3       185 Walling… Sheehan HS    0.8 Pt…
 4 Stony … Prest…    12 <NA>  G     6-4       205 Syracus… Jamesville-D… 3.0 Pt…
 5 USC Tr… Amar …    55 SR    G     5-7       150 Long Be… Fremont HS    3.0 Pt…
 6 South … Ford …    44 JR    G     6-3       183 Charlot… United Faith… 3.0 Pt…
 7 UNC Gr… Jevon…    15 <NA>  G     6-3       170 Durham,… <NA>          1.0 Pt…
 8 New Me… Safi …     2 <NA>  G     5-11      165 Las Cru… <NA>          3.0 Pt…
 9 New Me… Camer…    20 <NA>  G     6-1       165 Kirtlan… Kirtland HS   0.8 Pt…
10 Mercer… John …    15 SO    F     6-6       210 Atlanta… Marist School 1.5 Pt…
# … with 5,678 more rows, and 50 more variables: Rk.x <dbl>, G <dbl>, GS <dbl>,
#   MP <dbl>, FG <dbl>, FGA <dbl>, `FG%` <dbl>, `2P` <dbl>, `2PA` <dbl>,
#   `2P%` <dbl>, `3P` <dbl>, `3PA` <dbl>, `3P%` <dbl>, FT <dbl>, FTA <dbl>,
#   `FT%` <dbl>, ORB <dbl>, DRB <dbl>, TRB <dbl>, AST <dbl>, STL <dbl>,
#   BLK <dbl>, TOV <dbl>, PF <dbl>, PTS <dbl>, Rk.y <dbl>, PER <dbl>,
#   `TS%` <dbl>, `eFG%` <dbl>, `3PAr` <dbl>, FTr <dbl>, PProd <dbl>,
#   `ORB%` <dbl>, `DRB%` <dbl>, `TRB%` <dbl>, `AST%` <dbl>, `STL%` <dbl>, …
…
