Sports Data Analysis and Visualization - 12 Z-scores
…
A way to read this – a team with a TotalZScore of 0 is precisely average. The larger the positive number, the more exceptional they are. The larger the negative number, the more truly terrible they are.

So who are the best teams in the country?

teamzscore %>% arrange(desc(TotalZscore))

# A tibble: 1,317 × 11
# Groups:   conference [102]
   conference team        FGAvg ReboundAvg OppFGAvg OffRebAvg FGzscore RebZscore
   <chr>      <chr>       <dbl>      <dbl>    <dbl>     <dbl>    <dbl>     <dbl>
 1 SWAC       Jackson St. 0.446       47.5    0.347      34.0    2.09      2.30 
 2 ASUN       Liberty     0.447       42.0    0.344      28.5    1.91      2.16 
 3 USA South  Southern V… 0.426       47.1    0.325      35.9    1.47      2.31 
 4 <NA>       Dakota St.  0.521       40      0.271      34      2.87      0.626
 5 <NA>       Lourdes     0.392       57      0.291      35      0.925     2.97 
 6 <NA>       Mt. Vernon… 0.5         45      0.306      34      2.55      1.32 
 7 SEC        South Caro… 0.432       48.3    0.330      30.2    0.558     2.02 
 8 Pac-12     Stanford    0.452       42.2    0.348      32.6    1.78      1.76 
 9 CSAC       Clarks Sum… 0.433       42.9    0.325      38.2    1.85      0.551
10 OVC        Murray St.  0.480       39.8    0.386      30.1    1.81      1.75 
# … with 1,307 more rows, and 3 more variables: OppZscore <dbl>,
#   OppRebZScore <dbl>, TotalZscore <dbl>
…
So, as we can see, with our composite Z Score, Maryland is better than average but not great. But better than Ohio State. Notice how, by this measure, Michigan and Iowa are far ahead of most of the conference, with Rutgers a surprising fourth (mostly thanks to its defense and rebounding).

We can limit our results to just Power Five conferences plus the Big East:

powerfive_plus_one <- c("SEC", "Big Ten", "Pac-12", "Big 12", "ACC", "Big East")
teamzscore %>% 
  filter(conference %in% powerfive_plus_one) %>% 
  arrange(desc(TotalZscore)) %>%
  select(team, TotalZscore)

Adding missing grouping variables: `conference`

# A tibble: 76 × 3
# Groups:   conference [6]
   conference team           TotalZscore
   <chr>      <chr>                <dbl>
 1 SEC        South Carolina        6.87
 2 Pac-12     Stanford              6.52
 3 Big East   UConn                 5.67
 4 Big Ten    Michigan              4.75
 5 ACC        NC State              4.74
 6 Big Ten    Iowa                  4.42
 7 Big 12     Baylor                4.40
 8 SEC        Tennessee             3.90
 9 Big East   Marquette             3.90
10 Big Ten    Nebraska              3.11
# … with 66 more rows
…
