Chapter 22 Automating analysis | Data Journalism with R and the Tidyverse
…
Let’s see if there’s anything unusual in the data by counting the number of rows for each county:

county_totals <- county_vaccinations_by_date %>%
  group_by(county) %>%
  summarize(total = n())

View(county_totals)

There are totals for all of Maryland’s jurisdictions, plus one for “Unknown” and one that’s NA. All but the last one have roughly the same number of records. What’s going on with the NA records?

county_vaccinations_by_date %>%
  filter(is.na(county))

## # A tibble: 208 x 13
##    objectid vaccination_date county first_dose_daily first_dose_cumulative
##       <dbl> <date>           <chr>             <dbl>                 <dbl>
##  1        1 2021-01-08       <NA>               8000                  8000
##  2        2 2021-01-13       <NA>                  1                  8001
##  3        3 2021-01-26       <NA>                  1                  8002
##  4        4 2021-02-06       <NA>                  1                  8003
##  5        5 2021-02-10       <NA>                 NA                  8003
##  6        6 2021-02-11       <NA>                  1                  8004
##  7        7 2021-02-13       <NA>                  1                  8005
##  8        8 2021-02-23       <NA>                  1                  8006
##  9        9 2021-03-06       <NA>                 NA                  8006
## 10       10 2021-03-08       <NA>                  1                  8007
## # … with 198 more rows, and 8 more variables: second_dose_daily <dbl>,
## #   second_dose_cumulative <dbl>, single_dose_daily <dbl>,
## #   single_dose_cumulative <dbl>, at_least_one_dose <dbl>,
## #   fully_vaccinated <dbl>, full_vaccinated_cumulative <dbl>,
## #   at_least_one_dose_cumulative <dbl>

They don’t seem to pertain to any county (or no county), and it’s not clear what these records represent. Let’s remove them from our dataset:

county_vaccinations_by_date <- county_vaccinations_by_date %>%
  filter(!is.na(county))

Now we can start to interview this data.

Let’s look at the most recent date, and that’s something that takes on different meaning when we’re talking about updating data. We need to make this generic so that every time we pull this up and run it, it’s the most recent date at the top. This time, it’s very simple:

county_vaccinations_by_date %>% arrange(desc(vaccination_date))

## # A tibble: 8,555 x 13
##    objectid vaccination_date county        first_dose_daily first_dose_cumulati…
##       <dbl> <date>           <chr>                    <dbl>                <dbl>
##  1      892 2021-11-23       Baltimore                  471               523442
##  2     1256 2021-11-23       Anne Arundel               235               377615
##  3     1544 2021-11-23       Baltimore Ci…              232               353969
##  4     1833 2021-11-23       Allegany                    13                32895
##  5     2459 2021-11-23       Cecil                       31                49289
##  6     2737 2021-11-23       Carroll                     85               108660
##  7     3028 2021-11-23       Calvert                     32                58787
##  8     3221 2021-11-23       Charles                     47                96284
##  9     3704 2021-11-23       Harford                     98               152295
## 10     4069 2021-11-23       Caroline                     4                15100
## # … with 8,545 more rows, and 8 more variables: second_dose_daily <dbl>,
## #   second_dose_cumulative <dbl>, single_dose_daily <dbl>,
## #   single_dose_cumulative <dbl>, at_least_one_dose <dbl>,
## #   fully_vaccinated <dbl>, full_vaccinated_cumulative <dbl>,
## #   at_least_one_dose_cumulative <dbl>
…
