Data Journalism with R and the Tidyverse - 29 Geographic analysis
…
voters_by_county <- read_csv("data/eligible_voters.csv")

Rows: 24 Columns: 10
── Column specification ────────────────────────────────────────────────────────
Delimiter: ","
chr (1): County
dbl (9): DEM, REP, BAR, GRN, LIB, WCP, OTH, UNA, TOTAL

ℹ Use `spec()` to retrieve the full column specification for this data.
ℹ Specify the column types or set `show_col_types = FALSE` to quiet this message.

voters_by_county %>% arrange(desc(TOTAL))

# A tibble: 24 × 10
   County              DEM    REP   BAR   GRN   LIB   WCP   OTH    UNA  TOTAL
   <chr>             <dbl>  <dbl> <dbl> <dbl> <dbl> <dbl> <dbl>  <dbl>  <dbl>
 1 Montgomery       409636  97505     0  1113  2227   446  5468 156978 673373
 2 Prince George's  462097  37739     0   789  1313   593 10733  85143 598407
 3 Baltimore County 309297 137378     0   898  2493   687  5921 106789 563463
 4 Anne Arundel     173922 129893     0   632  2257   434  2951  96403 406492
 5 Baltimore City   303620  28211     0   908  1080   666  3984  56665 395134
 6 Howard           120954  49011     0   351   894   134  1981  56199 229524
 7 Frederick         76712  68334     0   318  1147   179  1060  48035 195785
 8 Harford           65127  80005     0   238  1182   202  1628  40778 189160
 9 Carroll           33572  63771     0   191   797   102  1033  28139 127605
10 Charles           74373  23334     0   129   425   143   864  21819 121087
# … with 14 more rows

So, what do we see here? Montgomery County has the most, followed by Prince George’s & Baltimore County. Checks out.

Next, we’ll go out and get population data for each county from tidycensus. The variable for total population is B01001_001.

md_county_population <- get_acs(geography = "county",
              variables = c(population = "B01001_001"),
              state = "MD")

Getting data from the 2016-2020 5-year ACS

md_county_population

# A tibble: 24 × 5
   GEOID NAME                          variable   estimate   moe
   <chr> <chr>                         <chr>         <dbl> <dbl>
 1 24001 Allegany County, Maryland     population    71002    NA
 2 24003 Anne Arundel County, Maryland population   575421    NA
 3 24005 Baltimore County, Maryland    population   828193    NA
 4 24009 Calvert County, Maryland      population    92094    NA
 5 24011 Caroline County, Maryland     population    33260    NA
 6 24013 Carroll County, Maryland      population   168233    NA
 7 24015 Cecil County, Maryland        population   102889    NA
 8 24017 Charles County, Maryland      population   161448    NA
 9 24019 Dorchester County, Maryland   population    31994    NA
10 24021 Frederick County, Maryland    population   255955    NA
# … with 14 more rows
…
voters_by_county

# A tibble: 24 × 10
   County              DEM    REP   BAR   GRN   LIB   WCP   OTH    UNA  TOTAL
   <chr>             <dbl>  <dbl> <dbl> <dbl> <dbl> <dbl> <dbl>  <dbl>  <dbl>
 1 Allegany          11793  22732     0    76   223    73   382   8337  43616
 2 Anne Arundel     173922 129893     0   632  2257   434  2951  96403 406492
 3 Baltimore City   303620  28211     0   908  1080   666  3984  56665 395134
 4 Baltimore County 309297 137378     0   898  2493   687  5921 106789 563463
 5 Calvert           23779  27912     0    94   410    69   548  15169  67981
 6 Caroline           6250  10539     0    34   108    40   160   4454  21585
 7 Carroll           33572  63771     0   191   797   102  1033  28139 127605
 8 Cecil             20666  31961     0   111   447   104   678  16360  70327
 9 Charles           74373  23334     0   129   425   143   864  21819 121087
10 Dorchester         9608   8965     0    22   110    33   191   3745  22674
# … with 14 more rows
…
