Chapter 21 Geographic analysis | Data Journalism with R and the Tidyverse
…
For the rest of this chapter, we’re going to work on building a map that will help us gain insight into geographic patterns in hospital bed availability by county in Maryland. Our question: by examining the number of hospital beds per 100,000 people in each county, what regional geographic patterns can we identify?

Each hospital exists inside of a county, so we’re going to first calculate the total number of beds in each county. We do this by first converting the md_hospitals data to a standard dataframe (instead of a spatial dataframe) using as_tibble(), then grouping by county and totaling the number of beds. Finally, let’s sort by total_beds to see which county has the most.

md_beds_by_county <- md_hospitals %>%
  as_tibble() %>%
  group_by(COUNTY) %>%
  summarise(
    total_beds = sum(BEDS)
  ) %>%
  arrange(desc(total_beds))

md_beds_by_county

## # A tibble: 22 x 2
##    COUNTY          total_beds
##    <chr>                <dbl>
##  1 BALTIMORE CITY        4505
##  2 MONTGOMERY            1298
##  3 BALTIMORE             1152
##  4 PRINCE GEORGE'S        789
##  5 ANNE ARUNDEL           673
##  6 ALLEGANY               371
##  7 HOWARD                 331
##  8 FREDERICK              308
##  9 WICOMICO               281
## 10 HARFORD                255
## # … with 12 more rows

So, what do we see here? Baltimore City has the most, followed by Montgomery, Baltimore County and Prince George’s. All big counties.

Next, we’ll go out and get population data for each county from tidycensus. The variable for total population is B01001_001.

md_county_population <- get_acs(geography = "county",
              variables = c(population = "B01001_001"),
              state = "MD")

## Getting data from the 2015-2019 5-year ACS

md_county_population

## # A tibble: 24 x 5
##    GEOID NAME                          variable   estimate   moe
##    <chr> <chr>                         <chr>         <dbl> <dbl>
##  1 24001 Allegany County, Maryland     population    71445    NA
##  2 24003 Anne Arundel County, Maryland population   571275    NA
##  3 24005 Baltimore County, Maryland    population   828018    NA
##  4 24009 Calvert County, Maryland      population    91511    NA
##  5 24011 Caroline County, Maryland     population    33049    NA
##  6 24013 Carroll County, Maryland      population   167699    NA
##  7 24015 Cecil County, Maryland        population   102552    NA
##  8 24017 Charles County, Maryland      population   159428    NA
##  9 24019 Dorchester County, Maryland   population    32138    NA
## 10 24021 Frederick County, Maryland    population   251422    NA
## # … with 14 more rows
…
md_beds_by_county

## # A tibble: 22 x 2
##    COUNTY          total_beds
##    <chr>                <dbl>
##  1 BALTIMORE CITY        4505
##  2 MONTGOMERY            1298
##  3 BALTIMORE             1152
##  4 PRINCE GEORGE'S        789
##  5 ANNE ARUNDEL           673
##  6 ALLEGANY               371
##  7 HOWARD                 331
##  8 FREDERICK              308
##  9 WICOMICO               281
## 10 HARFORD                255
## # … with 12 more rows
…
