Chapter 15 Scraping data with Rvest | Data Journalism with R and the Tidyverse
…
# display the tables below
naics_industry

## [[1]]
## # A tibble: 4 x 3
##   Conversion               `Reference Month Implemented` `Date Released` 
##   <chr>                    <chr>                         <chr>           
## 1 SIC to NAICS 2002        May 2003                      June 6, 2003    
## 2 NAICS 2002 to NAICS 2007 January 2008                  February 1, 2008
## 3 NAICS 2007 to NAICS 2012 January 2012                  February 3, 2012
## 4 NAICS 2012 to NAICS 2017 January 2018                  February 2, 2018
## 
## [[2]]
## # A tibble: 21 x 2
##    Sector Description                                  
##    <chr>  <chr>                                        
##  1 11     Agriculture, Forestry, Fishing and Hunting   
##  2 21     Mining, Quarrying, and Oil and Gas Extraction
##  3 22     Utilities                                    
##  4 23     Construction                                 
##  5 31-33  Manufacturing                                
##  6 42     Wholesale Trade                              
##  7 44-45  Retail Trade                                 
##  8 48-49  Transportation and Warehousing               
##  9 51     Information                                  
## 10 52     Finance and Insurance                        
## # … with 11 more rows
## 
## [[3]]
…
# Read in all html from table, store all tables on page as nested list of dataframes.
naics_industry  <- naics_url %>%
  read_html() %>%
  html_table()

# Just keep the second dataframe in our list

naics_industry <- naics_industry[[2]]

# show the dataframe

naics_industry

## # A tibble: 21 x 2
##    Sector Description                                  
##    <chr>  <chr>                                        
##  1 11     Agriculture, Forestry, Fishing and Hunting   
##  2 21     Mining, Quarrying, and Oil and Gas Extraction
##  3 22     Utilities                                    
##  4 23     Construction                                 
##  5 31-33  Manufacturing                                
##  6 42     Wholesale Trade                              
##  7 44-45  Retail Trade                                 
##  8 48-49  Transportation and Warehousing               
##  9 51     Information                                  
## 10 52     Finance and Insurance                        
## # … with 11 more rows
…
