Chapter 18 Visualizing your data for reporting | Data Journalism with R and the Tidyverse
…
Let’s look at how to make another common chart type that will help you understand patterns in your data.

Line charts can show change over time. It works much the same as a bar chart, code wise, but instead of a weight, it uses a y.

So, let’s create a dataframe with a count of Maryland loans for each date in our dataframe.

ppp_maryland_loans_by_date <- ppp_maryland %>%
  group_by(date_approved) %>%
  summarise(
    total_loans=n()
  )

ppp_maryland_loans_by_date 

## # A tibble: 235 x 2
##    date_approved total_loans
##    <date>              <int>
##  1 2020-04-03             28
##  2 2020-04-04            262
##  3 2020-04-05            487
##  4 2020-04-06            830
##  5 2020-04-07           1164
##  6 2020-04-08           1354
##  7 2020-04-09           1777
##  8 2020-04-10           1728
##  9 2020-04-11           1243
## 10 2020-04-12            528
## # … with 225 more rows
…
