Are College Teams Passing More on First Down? - Sports Data Blog
…
Now we can see the consistent run-first schools: Wisconsin, Minnesota, Iowa and Rutgers. We also can see that Maryland, after dramatically increasing its first-down pass plays between 2018 and 2020, has come back closer to the conference average.

But Indiana stands alone this season. What about historically?

combined_plays %>% 
  arrange(desc(pass_pct)) %>% 
  head(50)

## # A tibble: 50 × 5
## # Groups:   season [8]
##    season pos_team          all_plays pass_plays pass_pct
##     <dbl> <chr>                 <int>      <int>    <dbl>
##  1   2020 Mississippi State       272        225     82.7
##  2   2019 Washington State        412        316     76.7
##  3   2014 Akron                   333        254     76.3
##  4   2014 Miami                   205        155     75.6
##  5   2014 Washington State        452        338     74.8
##  6   2015 Washington State        409        284     69.4
##  7   2015 Illinois                301        209     69.4
##  8   2017 Washington State        410        279     68.0
##  9   2016 California              390        263     67.4
## 10   2018 Washington State        367        241     65.7
## # … with 40 more rows
…
